<?xml version="1.0" encoding="utf-8"?>
<!-- Generator: Adobe Illustrator 25.2.3, SVG Export Plug-In . SVG Version: 6.00 Build 0)  -->
<svg version="1.1" id="Ñëîé_1" xmlns="http://www.w3.org/2000/svg" xmlns:xlink="http://www.w3.org/1999/xlink" x="0px" y="0px"
	 viewBox="0 0 2746.9 1681" style="enable-background:new 0 0 2746.9 1681;" xml:space="preserve">
<style type="text/css">
	.st0{fill:#E50947;}
	.st1{fill:#6BC3C4;}
</style>
<g>
	<path class="st0" d="M2145.2,1539.3c0,27.8,0,53.6,0,79.4c0,27,0,27.3-25.2,35.1c-88.8,27.2-179,36.3-270.4,16.8
		c-111.7-23.8-186.2-105.8-193.3-220c-5.5-87.7-7.7-176.4-1.4-264c6-82.3,52.5-143.1,133.5-170c103.5-34.5,206.7-33.2,308.1,10.2
		c100.1,42.9,143.6,176.2,97.5,270.2c-24,49-66,77.8-114.7,98c-61.6,25.5-126.6,30.8-192.4,29.3c-23.5-0.5-43-23.4-43.4-48
		c-0.3-25.7,20-47.1,46.7-49.9c27.1-2.9,54.6-4.4,81.2-10c23.3-4.9,46.9-12.2,68.2-22.8c33.9-16.9,51.5-46.3,49.3-84.9
		c-2.4-41.4-21.1-73.6-61.2-88.1c-60.6-22-122.7-23.1-184.2-3.4c-41.7,13.4-64.6,44.9-64.9,88.8c-0.6,72.8-1.6,145.7,0.9,218.4
		c0.9,25.7,8.4,52.3,18.4,76.3c18.1,43.6,57.4,59.5,100.8,66.5c76.3,12.3,150.5,1,223.6-21C2129.1,1544.1,2136.1,1542,2145.2,1539.3
		z"/>
	<path class="st1" d="M66.8,1133.1c0-32.8-0.3-64.8,0.4-96.7c0.1-3.6,5-8.9,8.8-10.3c47.6-17.7,97-26.7,147.5-31.4
		c47.4-4.3,94.3-1.9,140.7,8.6c109.3,24.7,181.2,99,191.4,210.8c8.2,89.9,8.2,181.3,2.6,271.4c-5.3,84.8-55.8,151.3-150.5,178.2
		c-50.9,14.5-102.5,18.4-155.2,15.8c-57-2.8-111.3-14.9-160-45.1c-54.3-33.7-81.5-85.5-90.5-147.6c-4.8-33.6-1.5-66.6,10.9-98.3
		c17.1-43.6,49.4-73.4,89.4-95.3c55.1-30.2,115.3-40.8,177.3-43.3c13.4-0.5,26.8-0.8,40.2-1.3c24.8-0.9,47.5,20,49.3,45.2
		c1.9,27.1-17.7,51.9-43.8,53c-46.9,2-92.5,10.9-137.4,24.1c-35.4,10.4-68,57.8-63.9,94.7c5.7,51.9,30.8,81.5,81.9,94.3
		c50.3,12.6,101.1,13,151.4,0.5c44.4-11,75.9-40.5,76.3-89.9c0.6-77.4,1.5-154.8-1.1-232.1c-1.3-38.3-13.9-74.6-45.1-101.3
		c-23.3-19.9-51.4-27.3-80.4-31.5c-75.8-10.8-149.4,1.5-221.7,24c-4,1.2-8,2.5-12,3.5C72,1133.7,70.6,1133.3,66.8,1133.1z"/>
	<path class="st0" d="M2305.9,1523.7c27.7,10.7,53.4,22.7,80.3,30.6c58.7,17.1,118.3,23.3,178,4.7c26.3-8.2,47.8-23.4,55.7-51.6
		c8.7-31.3-0.6-57.9-25-78.6c-24.5-20.7-53.7-32.5-84.1-41.8c-36.4-11.1-73.3-20.8-108.7-34.3c-59.5-22.7-105.2-60.9-115.3-127.6
		c-16.9-111.9,48.7-203.2,160.1-224.6c84-16.2,165.1-5.6,242.8,30.8c8.6,4,12.4,8.6,12.1,18.7c-0.8,30.5-0.3,61-0.3,93.5
		c-8.3-3.4-15-6.1-21.8-8.8c-60.8-24.4-123.4-37.5-188.9-26.2c-17.5,3-35.2,9.1-50.8,17.4c-25.6,13.7-40.1,49.1-30.1,73.9
		c4.7,11.6,14.4,23.8,25.2,29.6c23.5,12.7,48.8,22.4,74,31.5c36.6,13.2,74.4,23.2,110.6,37.3c124.6,48.5,153.6,180.6,104.9,272.8
		c-33.4,63.3-89.3,95-158.4,104.7c-62.6,8.8-125,7.2-185.9-11.3c-22.6-6.9-44.2-17-65.8-26.6c-3.9-1.7-8.1-7.9-8.2-12.1
		C2305.6,1591.8,2305.9,1557.9,2305.9,1523.7z"/>
	<path class="st0" d="M1593.2,997.5c0,37,0,72.6,0,107.8c-26.1,0-51.6-2-76.6,0.6c-23.2,2.4-47,6.9-68.7,15.4
		c-38.3,14.9-55.2,46.6-55.3,86.7c-0.4,147.9-0.2,295.7-0.2,443.6c0,18.5,0.2,18.5-18.9,18.5c-34.7,0-69.5,0-105.6,0
		c-0.3-6.3-0.7-11.7-0.7-17.1c0-149.3-1.7-298.6,0.6-447.8c1.3-84.8,40.9-148.7,121.1-183.2c63.8-27.5,130.8-32.1,199.1-26.2
		C1589.5,995.9,1591.2,996.8,1593.2,997.5z"/>
	<path class="st1" d="M976.6,1664.2c-3.3,2.1-6.6,6-9.9,6c-39.4,0.4-78.8,0.6-118.2-0.1c-3.9-0.1-9.7-4.8-11.2-8.7
		c-65.4-170.4-130.5-340.9-195.6-511.4c-16.5-43.3-33.3-86.5-50-129.7c-1.6-4.3-3-8.7-5.1-15c5.6-0.5,9.9-1.3,14.2-1.3
		c35.7-0.1,71.4,0.2,107.1-0.2c9.2-0.1,14,2.6,17.5,11.6c59,154.9,118.4,309.7,177.7,464.5c1.4,3.7,4,6.9,6.1,10.4
		c1.4,6.7,1.9,13.7,4.3,20c18.6,49.1,37.5,98.1,56.6,147C971.2,1660.1,974.4,1661.9,976.6,1664.2z"/>
	<path class="st0" d="M976.6,1664.2c-2.2-2.3-5.4-4.1-6.5-6.8c-19.1-48.9-38-97.9-56.6-147c-2.4-6.3-2.9-13.3-4.3-20
		c60.7-158.8,121.4-317.6,182.5-476.3c1.5-3.9,7.2-8.8,11-8.9c40.3-0.6,80.7-0.3,121-0.2c1.3,0,2.5,0.7,5,1.4
		c-11.9,31.4-23.6,62.4-35.5,93.4c-70.7,184.8-141.4,369.5-212.2,554.3C979.8,1657.5,978.1,1660.8,976.6,1664.2z"/>
	<path class="st0" d="M1370.9,449.8c-15.3,18.2-40.9,13.2-47-11.2c-2.7-10.6,0.8-25,6.5-34.8c6.6-11.3,18.6-6.2,28.2-0.2
		C1372.7,416.3,1375.9,432,1370.9,449.8z"/>
	<path class="st1" d="M1843,540.1c-17.4,0-26.8-7.2-26.7-20.8c0.1-17.5,14.4-33.2,30.3-33.3c16.6-0.1,31.8,11.4,32.1,24.3
		C1879,525.7,1861.8,540.1,1843,540.1z"/>
	<path class="st0" d="M1300,730.8c0,15.8-7.8,24.9-21.2,24.8c-17.3-0.2-34-12.7-34.3-25.7c-0.4-14.9,16.2-33.6,29.4-33.1
		C1287.5,697.1,1300,713.4,1300,730.8z"/>
	<path class="st1" d="M1711.5,97.9c16.2-0.1,25.6,7.3,25.7,20.3c0.1,17.5-13.1,35.7-26.1,35.8c-14.1,0.1-31.4-17.6-31.2-31.8
		C1680.3,108.4,1693.7,98.1,1711.5,97.9z"/>
	<path class="st0" d="M1260.9,167.2c18,0,29.2,10,29,26c-0.2,14.4-12.4,27.7-25.6,27.9c-14.6,0.2-26.8-13.3-26.8-29.5
		C1237.7,175.7,1245.8,167.2,1260.9,167.2z"/>
	<path class="st1" d="M1840.6,171.7c-0.7,16.3-12.5,28.9-26.3,28.1c-14.6-0.8-27.7-16.1-27.1-31.6c0.6-14.7,11.1-25.9,23.8-25.5
		C1827.1,143.2,1841.2,157,1840.6,171.7z"/>
	<path class="st1" d="M1512.4,123.4c-16.6,0-26.2-6.6-26.4-18.1c-0.2-16.9,15.3-36.9,28.3-36.4c12.6,0.5,28.5,19.2,28.3,33.5
		C1542.4,116.1,1531.9,123.4,1512.4,123.4z"/>
	<path class="st0" d="M1414.9,342.4c-13.6,10.2-26,9.4-41.5-2.7c-1.6-6-3.2-12-4.8-18c4.8-23.6,12.6-30.6,31.9-28.6
		C1413.8,307.1,1426.8,321.1,1414.9,342.4z"/>
	<path class="st0" d="M1225.2,318.7c-5.2,1.7-10.3,4.3-15.6,5c-17.1,2-27.4-4.2-28.4-16.3c-1.2-14.7,11.9-30.1,26.5-31.1
		c1.4-0.1,2.8-0.1,4.1-0.2c4.1,0.6,8.3,0.6,12.2,1.9c20.2,6.5,22.8,19,7.4,33.6C1229.1,313.6,1227.2,316.3,1225.2,318.7z"/>
	<path class="st1" d="M1461.9,139.3c-0.2,16.7-6.6,22.7-18.6,22.2c-12.9-0.5-30.3-13.4-32.9-24.3c-2.5-10.3,6.3-25.5,18-32
		c8.2-4.5,16.2-3.8,20.6,4.1C1455,120.2,1458.9,132.1,1461.9,139.3z"/>
	<path class="st0" d="M1295.8,830.9c-7.5-5.9-18-10.2-21.8-17.9c-5-10.4,5.7-17,13.3-23.1c1.1-0.9,2.4-1.4,3.6-2
		c11.9-5.8,24.7-12.1,35.7-0.8c4.3,4.4,6.1,14.4,4.5,20.7C1327.7,821,1313.1,828.6,1295.8,830.9z"/>
	<path class="st0" d="M1389.1,264.7c-8.6,10.2-19.4,10.7-30,5.1c-11.3-5.9-18.6-15.1-16.5-29.2c1.9-12.8,6.7-23.1,20.8-25.9
		c0,0,1.1,0.5,1.1,0.5l1.2-0.4c1.5,0.1,3.1,0.3,4.6,0.4C1389.2,226.9,1392.5,244.5,1389.1,264.7z"/>
	<path class="st0" d="M1153.2,339.9c-0.4,15.6-5.4,21.5-16.1,21.9c-12.2,0.5-30.2-11.1-33.2-21.4c-3.1-10.8,3.9-25.5,15.8-32.8
		c8.4-5.2,16.6-5,21.4,4C1146.6,322,1150.4,333.3,1153.2,339.9z"/>
	<path class="st0" d="M1529,656.7c-5,2.1-9.9,5.3-15.1,6.1c-15.8,2.2-29.1-7.7-30-21.4c-1.1-16.9,11-31.2,26.8-31.8
		c2.3-0.1,4.6-0.2,6.9-0.4c1.8,2.5,3.3,5.3,5.5,7.6C1537.5,632,1538.5,638.2,1529,656.7z"/>
	<path class="st0" d="M1497.7,576.4c-17.3,9.5-32.5,7.1-45.5-8.1c0,0,0,0,0,0c2.6-9.5,3.9-19.7,8.1-28.4
		c7.2-14.9,16.4-16.5,30.1-7.2C1499.4,546.2,1511.5,559.1,1497.7,576.4z"/>
	<path class="st1" d="M1754.8,212.5c0,12.3-7,20.2-17.7,20c-16.8-0.4-34.5-13.8-34.8-26.1c-0.2-13,16.3-28.3,30.8-28.6
		C1745.9,177.6,1754.9,192,1754.8,212.5z"/>
	<path class="st0" d="M1348,635.4c-14.6,11.7-26.2,13-40.1,4.4c-16.1-10-15.9-23.6,0.6-32.6c3.6-2,7.5-3.3,11.3-5
		c0.9,0,1.8-0.1,2.7,0c10.3,0.8,20.7,1.6,31,2.5C1351.8,614.9,1349.9,625.1,1348,635.4z"/>
	<path class="st1" d="M1739.3,494.3c-17.7-1-31.4-11.8-30.7-24.1c0.8-12.5,21.1-29.2,34-28c11.1,1,21.7,17.8,20.6,32.6
		C1762.3,487.4,1752.9,495.1,1739.3,494.3z"/>
	<path class="st0" d="M1153.4,431.3c-15.6,0.2-22.8-5.9-23-19.1c-0.2-15.6,13-34.7,24-34.8c10-0.1,25.5,23,25.3,37.8
		C1179.7,425.1,1169.8,431.1,1153.4,431.3z"/>
	<path class="st1" d="M1741.2,659.3c-0.1,16.4-5.2,22.4-19.1,22.4c-16.8,0.1-33.4-12.4-33.3-25c0.1-12,18.2-26.7,32.7-26.7
		C1734.6,630.1,1741.3,640.1,1741.2,659.3z"/>
	<path class="st1" d="M1368.6,321.7c1.6,6,3.2,12,4.8,18c-1.8,5.7-2.9,11.7-5.3,17.2c-8.8,19.9-20.1,22.7-37.1,9.6
		c-2.8-14.5-5.5-28.9-8.3-43.4c9.1-10.3,20.2-8.8,31.7-5.4C1359.1,319.2,1363.9,320.4,1368.6,321.7z"/>
	<path class="st1" d="M1685.4,225.5c-0.1,14.4-15.9,29.9-30.9,30c-13.3,0.1-26.5-11.7-26.2-23.7c0.3-12.3,19.6-25,37.4-24.6
		C1678.1,207.4,1685.4,214.2,1685.4,225.5z"/>
	<path class="st0" d="M1454.2,765.8c-11.8,0.2-19.6-7.1-19.7-18.3c0-14,14.1-28.1,28.6-28.4c14.5-0.3,27.6,9.8,27.5,21.3
		C1490.5,752.6,1472,765.5,1454.2,765.8z"/>
	<path class="st0" d="M992.3,723.4c-0.1-16.8,7.1-23.5,18.8-21.6c14.9,2.4,27.4,18.2,25.6,33.2c-1.3,11.5-7,20.8-18.8,23
		c-11.6,2.2-15.9-7.7-19.7-16.1C995,734.9,993.4,727.2,992.3,723.4z"/>
	<path class="st0" d="M1376.9,711.6c-12,16.5-25.8,16.9-36.8,0.1c-4.1-6.2-6.7-14.3-7.3-21.7c-1.6-18.7,8.4-26.1,28.8-22.9
		C1372.1,680,1378.4,694.5,1376.9,711.6z"/>
	<path class="st0" d="M1288.9,473.8c-14.9,17.4-28.8,19.8-45.2,7.9c-13.1-9.5-13.2-20.8,0.3-29.8c5.3-3.5,11.4-5.9,17.1-8.8
		c2.7,0.3,5.4,0.7,8.1,0.8c18.6,0.7,21,3.3,20.1,21.7C1289.2,468.4,1289.1,471.1,1288.9,473.8z"/>
	<path class="st1" d="M1765.2,568.7c-15.1-0.3-27.4-9.3-27.4-20.2c0.1-13.2,17.3-30.6,30-30.3c10.9,0.3,23.1,17.8,22.6,32.6
		C1790.1,561.8,1780,569,1765.2,568.7z"/>
	<path class="st0" d="M1205,237.4c-3.5,5.7-5.5,13.3-10,15.2c-4.8,2.1-12.7,0.5-17.8-2.2c-13.8-7.1-21.2-22.5-16.8-37.3
		c1.9-6.5,8.6-14.7,14.4-16c5.3-1.2,14.8,4.4,18.3,9.8C1198.7,215.4,1200.8,226.1,1205,237.4z"/>
	<path class="st1" d="M1525.6,161.5c10.6-2.5,21.4-7.6,31.7-6.8c7.7,0.6,18.1,7.3,21,14c2,4.7-5,16.4-11,20.6
		c-8.7,6.1-20.1,8.4-30.4,12.3c-19.4-9.1-21.4-15-12.1-34.9C1525.6,165.1,1525.4,163.2,1525.6,161.5z"/>
	<path class="st0" d="M1372.5,600.6c2-22,18.7-27.6,36-32.6c17.6,7.9,20.5,14.9,15.5,37.4c-11.3,12-28,13.4-42,3.2
		c-3.3-2.4-6.3-5.4-9.4-8.1C1372.7,600.5,1372.5,600.6,1372.5,600.6z"/>
	<path class="st0" d="M1237.3,590.1c-8.3,10.9-17.1,8.9-25.9,0.8c-11.9-11-15.5-25-13.1-40.4c2.1-13.7,13.5-17.3,27.2-9.1
		C1234.2,556.5,1242.8,571.6,1237.3,590.1z"/>
	<path class="st0" d="M1563.1,734c-9.7,16.6-21.9,18.3-33,2.9c-5.4-7.5-9.6-17.5-9.9-26.4c-0.2-7.4,4.5-17.2,10.3-21.8
		c3.2-2.5,13.1,3.7,20,5.9C1554.8,707.7,1558.9,720.9,1563.1,734z"/>
	<path class="st0" d="M1047.3,647.9c-5.5-3.9-15-7.3-17.1-13.2c-1.9-5.3,3.1-14.5,7.6-20c4.4-5.4,11.5-9.4,18.1-12
		c11.2-4.4,21.5,0.5,26.4,11.1c5,10.8,1.9,20.9-9.7,26.5C1065.7,643.7,1057.8,644.9,1047.3,647.9z"/>
	<path class="st0" d="M1397.5,524c-4.1,17.2-16.1,21.9-30.5,11.9c-13.5-9.4-19.2-22.2-15.1-34c4.3-12.6,14.9-18.2,29.4-15.9
		C1386.7,498.7,1392.1,511.3,1397.5,524z"/>
	<path class="st0" d="M1492.8,314.3c-11.2,6.9-23.7,8.9-32.7-1c-5.6-6.1-9-17.1-8.1-25.4c1.2-12.1,10-20.2,23.7-20.3
		C1497.1,280.9,1500.6,290.6,1492.8,314.3z"/>
	<path class="st0" d="M1657,521.2c-10.9,6.8-22.5,8.2-34.1,2.6c-14.1-6.7-16.6-20.3-4.1-29.4c9.3-6.7,21.3-9.7,32.1-14.4
		C1668.8,497,1669.3,500.7,1657,521.2z"/>
	<path class="st1" d="M1664.5,286.4c13.6-13.9,41.9-9.9,48.2,8.2c2.1,6.1-0.9,17-5.6,21.8c-6.3,6.5-16.5,9.2-25,13.5
		c-13.5-10.9-19.1-24.9-17.1-42.1C1665.1,287.2,1664.7,286.8,1664.5,286.4z"/>
	<path class="st0" d="M1625.8,435.6c-9.7,2.7-19.4,7.2-29.1,7.3c-5.3,0-13.8-6.5-15.4-11.8c-4.9-15.8,14.3-37.2,31.4-36.8
		c3.2,3.8,6.9,7.2,9.5,11.3C1628.2,414.9,1633.6,424.5,1625.8,435.6z"/>
	<path class="st1" d="M1665.6,680.9c1.1,13.5-6.7,21.7-17.4,25c-11.9,3.6-17-6.7-20.8-15.7c-2.6-6.3-5.2-13.2-5.2-19.8
		c0-5.7,2.3-14.4,6.3-16.4c5.6-2.9,15-3.2,20.5-0.3C1659.4,659,1667.4,667.9,1665.6,680.9z"/>
	<path class="st1" d="M1770,251c8.8,8.1,18.1,13.2,20.9,20.6c1.5,4-6.6,14.5-12.6,18c-8.9,5-19.7,7.6-30,8.8
		c-4.7,0.5-12.2-3.6-14.5-7.8c-2.2-4.1-1.4-13.3,1.8-16C1745.2,266.2,1756.6,259.8,1770,251z"/>
	<path class="st1" d="M1339.4,135.5c10.1-14.1,27.4-14.6,44.1-1.3c14.2,11.4,15,22,2.8,36.3c-11.4,13.3-22.4,16.2-39.2,10.4
		c19.1-15.6,19.8-25.8,2.5-38.3C1346.1,140.2,1342.7,137.9,1339.4,135.5z"/>
	<path class="st0" d="M1684.4,599.2c-10,4-20,7.6-29.7-0.9c-9.7-8.6-9.5-19.7-7-30.7c2.3-9.8,9.1-15.8,19.9-16
		C1695.8,567.4,1698.4,574.7,1684.4,599.2z"/>
	<path class="st0" d="M1259.1,400.6c-15.8,11.5-22.1,10.3-31.1-6.4c-2.8-5.2-6.1-11.1-6.2-16.7c-0.1-7.7,0.5-17.5,5-22.3
		c3.4-3.6,13.6-0.8,20.8-0.8C1259.7,367.8,1266,382.6,1259.1,400.6z"/>
	<path class="st0" d="M1079,369.7c-5.1,7-8.7,17-14.4,18.4c-5.8,1.4-15.8-4-20.2-9.5c-5.4-6.8-8.9-16.5-9.3-25.2
		c-0.2-5.7,5.4-15.1,10.5-16.7c5.9-1.9,16.4,0.6,20.5,5.2C1072.1,348.5,1074.2,358.7,1079,369.7z"/>
	<path class="st0" d="M1576.2,547.2c-8,1.5-16,4.4-24,4.2c-15.7-0.2-22.8-15.4-13.9-28.6c8.3-12.1,20.1-17,34.6-15.7
		c19.1,16.5,19.5,19.3,5.2,36.5C1577.3,544.7,1576.8,546,1576.2,547.2z"/>
	<path class="st0" d="M1371.8,792.9c-10.7,0.7-16.8-4.6-17.1-15.9c-0.4-13.9,13.3-29.3,26-29.4c11-0.1,24.4,14,24.6,25.8
		C1405.2,782.9,1389,792.6,1371.8,792.9z"/>
	<path class="st0" d="M1448.5,685.1c-10.4,7.6-22.3,8.5-31.4,0.4c-5.4-4.8-9.3-15.3-8.2-22.4c1.6-11.4,10.7-18.7,23.1-20
		c1.8-0.2,3.6-0.7,5.4-1C1457.5,657.8,1459.7,666,1448.5,685.1z"/>
	<path class="st1" d="M1624.7,70c-0.2,13.8-13,25.6-27.6,25.5c-12.8-0.1-22.4-10.1-22.4-23.1c0.1-13.3,13.1-23.9,28.9-23.6
		C1615.5,49,1624.8,58.5,1624.7,70z"/>
	<path class="st0" d="M1192.6,682.9c-5.9,6.6-9.7,14.7-15,15.8c-5.5,1.2-15.3-2.7-18.1-7.4c-5.5-9.2-8.9-20.4-10.3-31.1
		c-0.7-4.8,4.2-13.2,8.7-15.2c4.2-1.8,13.5,1,16.4,4.9C1181.3,659.2,1185.8,670.3,1192.6,682.9z"/>
	<path class="st1" d="M1579.3,326.9c1.7-19.5,6-24.3,20.9-23.2c16.8,1.2,33.4,15.1,33.1,27.8c-0.3,15-16.2,28.4-33.1,27.8
		C1602.1,334.9,1598.5,329.3,1579.3,326.9z"/>
	<path class="st0" d="M1218.3,756.7c0,11.7-8.4,20.1-19.9,20.2c-12.4,0.1-22.9-12.2-22.7-26.6c0.2-12.2,9-21,21-21.1
		C1208.6,729.1,1218.3,741.5,1218.3,756.7z"/>
	<path class="st1" d="M1597.3,584.5c2.4-1.4,4.6-3.2,7.1-4.2c15.3-6.4,31.9-1.5,37,10.7c5.3,12.6-3.4,38.8-16.1,41.5
		c-8.3,1.7-18-3.4-27.1-5.5c18-15.5,18.2-20.1,2.5-38.2C1599.5,587.5,1598.5,586,1597.3,584.5z"/>
	<path class="st1" d="M1625.8,435.6c7.8-11,2.3-20.6-3.6-29.9c-2.6-4.1-6.3-7.6-9.5-11.3c12.5-14.5,26.5-14.9,42.9-0.8
		c3.8,3.3,7.1,7.2,10.6,10.9c0.6,0.6,0.6,1.2,0,1.9C1661.2,426.5,1646.9,436.9,1625.8,435.6z"/>
	<path class="st0" d="M1080.1,721.3c-12,0.2-16.3-6.9-16.5-17.6c-0.3-14.1,10.4-27.1,22.3-27.3c10-0.1,23,15.8,22.6,27.7
		C1108.2,713.4,1095.4,721.1,1080.1,721.3z"/>
	<path class="st1" d="M1237.3,590.1c5.5-18.5-3.1-33.7-11.8-48.8c1.3-0.4,2.7-0.8,3.9-1.3c16.8-7.8,33.7-5.9,40.5,4.6
		c6.3,9.7,0.9,32.3-11.7,41C1252.8,589.4,1244.4,588.8,1237.3,590.1z"/>
	<path class="st0" d="M1324.9,545.9c-3.2,2.6-6.4,5.2-9.6,7.8c-14.8,11.5-25,8.8-32.3-8.6c-6.7-16-2.2-25,14.5-28.5
		c3.6-0.8,7.4-0.8,11-1.2C1328.4,523.3,1328.9,524.3,1324.9,545.9z"/>
	<path class="st0" d="M1162.1,599.7c0.1,12.4-7.4,22.1-17.6,22.6c-10.5,0.5-24.1-15.8-24.5-29.4c-0.3-10.1,9.4-19,21.1-19.1
		C1153.3,573.7,1161.9,584.3,1162.1,599.7z"/>
	<path class="st0" d="M1271.6,649.1c-0.2,13.3-8.8,23-20.6,23.1c-10.9,0.1-24.1-14.1-24.3-26c-0.2-10.3,12.8-19.2,27.8-19
		C1265.6,627.3,1271.8,635.2,1271.6,649.1z"/>
	<path class="st0" d="M1461.6,232.8c-14.5,9.1-27.8,7-40.1-4.3c-0.2-3.2-0.3-6.5-0.5-9.7c0.4-15.6,13.3-19.8,24-25.9
		C1469.9,203.4,1473.9,213,1461.6,232.8z"/>
	<path class="st1" d="M1420.9,218.8c0.2,3.2,0.3,6.5,0.5,9.7c-2.3,25.6-12.6,37.2-32.4,36.2c3.4-20.2,0.1-37.8-18.8-49.6
		c12.1-11.6,24.8-9.8,38-2.2C1412.3,215.3,1416.7,216.9,1420.9,218.8z"/>
	<path class="st0" d="M1579.3,326.9c19.2,2.4,22.8,7.9,20.9,32.4c-12.7,11.9-25.7,13.7-36.7,5.1c-13.7-10.7-13-22.7,2-31.4
		C1569.8,330.5,1574.7,328.9,1579.3,326.9z"/>
	<path class="st0" d="M1339.4,135.5c3.4,2.4,6.7,4.7,10.1,7.1c17.3,12.5,16.7,22.7-2.5,38.3c-18.8,4.4-25.3,0.9-28.1-15.3
		C1315.7,147.4,1322.1,138,1339.4,135.5z"/>
	<path class="st0" d="M1550.3,464.2c-1.3,0.5-2.6,1.3-3.9,1.3c-8.1,0.1-20.7,3.1-23.4-0.7c-5.1-7.3-8-19.5-5.6-28
		c3.1-11.4,15.6-10.9,26.1-9.4c1.4,0.2,2.8,0.2,4.1,0.3c1.8,2,3.5,4.1,5.5,5.9c8.6,7.4,11.9,15,1.7,23.9
		C1552.9,459.2,1551.8,461.9,1550.3,464.2z"/>
	<path class="st0" d="M1523,387.8c-7.9,4.6-15.3,12.5-25.3,4.3c-8-6.6-14.4-29.8-10.1-38.1c4.9-9.5,13-10.5,22.2-7.3
		C1521.1,358.2,1532,369.8,1523,387.8z"/>
	<path class="st0" d="M1309.4,284.5c-5.3,10.7-14,14.6-25.2,10.8c-11.4-3.9-18.2-20.7-14.6-34.3c3.7-13.9,14.5-13.5,25.6-12.4
		C1299.9,260.6,1304.7,272.5,1309.4,284.5z"/>
	<path class="st1" d="M1172.6,482c11.5-5.1,22.5-12.4,34.5-14.3c6.3-1,16.3,5.9,20.4,12c2,2.9-4.1,15.4-9.3,18.3
		c-10.5,5.8-23,7.9-34.7,11.5C1188,496.6,1184.6,488.2,1172.6,482z"/>
	<path class="st1" d="M1842,227c11.3,0.2,22.1,13.1,21.7,26.2c-0.3,11-11,20.4-22.6,19.8c-10.4-0.5-20.3-14.2-20.1-28
		C1821.2,235.1,1830.8,226.8,1842,227z"/>
	<path class="st0" d="M1664.5,286.4c0.2,0.4,0.5,0.9,0.5,1.3c-2,17.2,3.6,31.2,17.1,42.1c-13.7,12-27.5,13.2-38.3,3.3
		c-9.9-9.2-11.3-26.1-0.6-37.6C1648,290.3,1657.3,289.3,1664.5,286.4z"/>
	<path class="st1" d="M1872.1,139.2c0.2-12.2,7.5-19,20.5-18.9c12.2,0.1,21.1,10.4,21.1,24.4c0,11.2-11.3,21.6-23,21.3
		C1880,165.8,1871.9,154.1,1872.1,139.2z"/>
	<path class="st1" d="M1492.8,314.3c7.8-23.8,4.3-33.4-17.2-46.7c7.8-17.1,20.8-19.4,30.5-3.9c6.6,10.6,11,23.3,13.3,35.7
		c1,5.5-4.3,14.3-9.4,18C1506.7,319.8,1498.7,315.6,1492.8,314.3z"/>
	<path class="st0" d="M1597.3,584.5c1.2,1.4,2.2,2.9,3.5,4.3c15.8,18.1,15.5,22.7-2.5,38.2c-7.8,3-17,5.1-20.6-4
		c-3.6-9.2-6.1-20.7-3.7-29.9C1576.4,583.9,1587.1,581.3,1597.3,584.5z"/>
	<path class="st0" d="M1472.5,494.9c-10,3.1-19.9,12-30.1,0.5c-12.8-14.4-9.1-26.4,10.9-35.4c7.4,2.8,16.6,3.6,21.9,8.7
		C1483.7,476.9,1475.9,486.3,1472.5,494.9z"/>
	<path class="st0" d="M1443.2,415.3c-6.7,1.5-13.4,3.9-20.2,4.3c-17.4,0.9-24.7-10.5-17.3-26.1c7.9-16.7,19.5-23.4,37.6-21.6
		c-1.1,3.6-1.6,7.7-3.5,10.8c-4.7,7.5-7.5,14.5-0.8,22.6C1441.2,408,1441.9,411.9,1443.2,415.3z"/>
	<path class="st1" d="M1684.4,599.2c14-24.5,11.4-31.8-16.8-47.6c11.6-15,24.2-15.8,36-1c5,6.3,8.9,14.3,10.5,22.2
		C1718.4,594.2,1705.8,604.8,1684.4,599.2z"/>
	<path class="st1" d="M1448.5,685.1c11.2-19.1,9.1-27.4-11.1-43.1c9.4-10.7,20.9-12.5,31.2-4.7c12.1,9.1,15.4,29.8,6.9,43.7
		C1468.1,693.2,1458.7,691.8,1448.5,685.1z"/>
	<path class="st1" d="M1529,656.7c9.5-18.5,8.5-24.7-5.9-39.9c-2.1-2.2-3.7-5-5.5-7.6c8-11.5,18.6-8.3,28.3-3.8
		c10.8,5,17.8,13.8,15.4,26.5c-2.4,12.5-8.8,22.4-22.7,24.7C1535.5,657.2,1532.2,656.7,1529,656.7z"/>
	<path class="st1" d="M1624.6,167.9c-10.5-0.2-19.1-13.8-18.3-29.5c0.5-9.4,4.9-15.6,15.4-15.6c11,0,23.5,15.5,23.8,29.7
		C1645.7,160.9,1635.9,168.1,1624.6,167.9z"/>
	<path class="st0" d="M1322.7,323.1c2.8,14.5,5.5,28.9,8.3,43.4c-23,9.7-36.4,0.7-34.8-23.4C1297.3,326.8,1306.2,320.1,1322.7,323.1
		z"/>
	<path class="st0" d="M1570.3,280.7c-15.9,8.8-26.2,8.2-33-1.7c-9.9-14.3-4.1-25.7,16.7-33.2
		C1572.3,250.6,1577.5,261.8,1570.3,280.7z"/>
	<path class="st0" d="M1666.2,406.2c0.6-0.7,0.6-1.3,0-1.9c0-18.8,9.7-28.4,28.4-28.3c4.6,11.1,9.3,22.2,14,33.3
		C1701.2,423.8,1680.4,423.2,1666.2,406.2z"/>
	<path class="st1" d="M1443.2,415.3c-1.3-3.4-2-7.4-4.2-10c-6.7-8-3.9-15,0.8-22.6c1.9-3.1,2.4-7.2,3.5-10.8
		c23.2,0.5,23.8,0.9,29.1,20c4.3,15.4-0.9,22.7-16.9,23.4C1451.5,415.5,1447.3,415.3,1443.2,415.3z"/>
	<path class="st1" d="M1570.3,280.7c7.2-18.9,1.9-30.2-16.3-35c5.3-10.8,12.2-19.2,25.8-15.3c13.3,3.8,21.8,17.5,20,31.3
		C1598.3,274.2,1590.1,279.5,1570.3,280.7z"/>
	<path class="st1" d="M1461.6,232.8c12.3-19.8,8.3-29.4-16.7-39.9c6.1-5.5,11.7-14.7,18.3-15.5c5.6-0.6,12.5,8.3,18.5,13.4
		c2,1.7,2.9,4.6,4.1,7.1C1496.3,221.4,1487.4,234.2,1461.6,232.8z"/>
	<path class="st1" d="M1372.5,600.6c0,0,0.2-0.1,0.2-0.1c3.2,19.7-8.1,34.4-24.7,34.9c1.9-10.2,3.7-20.5,5.6-30.8
		c-10.3-0.8-20.7-1.7-31-2.5c-0.9-0.1-1.8,0-2.7,0c2.7-11.7,9-20.3,21.5-22C1357.3,577.9,1365.5,588.5,1372.5,600.6z"/>
	<path class="st1" d="M1657,521.2c12.3-20.4,11.8-24.1-6.1-41.1c6.7-2.5,13.5-7.1,20.2-7.1c6.9,0,17.9,2.8,19.9,7.4
		c2.7,6.6,0.9,17-2.6,23.9C1682.3,516.1,1669.8,519.9,1657,521.2z"/>
	<path class="st1" d="M1563.1,734c-4.2-13.1-8.4-26.3-12.5-39.4c1.3-0.5,2.5-1.4,3.8-1.5c9.1-0.5,19.1-3.2,26.9-0.1
		c4.4,1.7,7.9,13.3,7,19.8c-1.5,10.8-8.9,18.9-21.1,20.4C1565.8,733.3,1564.4,733.7,1563.1,734z"/>
	<path class="st1" d="M1576.2,547.2c0.7-1.2,1.1-2.5,2-3.6c14.2-17.2,13.9-20-5.2-36.5c14.3-8.4,25.1-7.3,31.3,3.2
		c7.6,12.7,4.4,35.4-5.8,42C1589.3,558.3,1583,551.4,1576.2,547.2z"/>
	<path class="st1" d="M1397.5,524c-5.4-12.7-10.8-25.3-16.2-38c3.7-1.8,7.2-4.2,11-5.5c12.1-4,24.3,0.9,28.1,10.7
		c4.8,12.6-0.8,25.7-13.5,30.7C1404,523.2,1400.6,523.4,1397.5,524z"/>
	<path class="st1" d="M1414.9,342.4c11.9-21.3-1.1-35.3-14.3-49.2c9.7-6.1,19.5-8.7,29.3-0.1c9,7.9,14.1,25.4,10,35.7
		C1435.3,340.1,1425.8,342.7,1414.9,342.4z"/>
	<path class="st1" d="M1370.9,449.8c5-17.8,1.8-33.5-12.3-46.3c0.9-0.2,1.8-0.2,2.7-0.5c21.2-6.3,34.5-1.9,37.5,12.4
		C1401.9,430.4,1388.9,446.5,1370.9,449.8z"/>
	<path class="st1" d="M1288.9,473.8c0.1-2.7,0.3-5.4,0.4-8.1c0.9-18.3-1.5-21-20.1-21.7c-2.7-0.1-5.4-0.6-8.1-0.8
		c6.9-15.4,15.7-20.2,30.3-16.4c11.3,2.9,19.3,13.7,18.4,26C1309,465.5,1302.1,472.9,1288.9,473.8z"/>
	<path class="st1" d="M1424.1,605.4c5-22.5,2.1-29.5-15.5-37.4c14.2-13.7,21.5-13.6,43.6,0.3c0,0,0,0,0,0c-0.4,4.4-0.7,8.9-1.1,13.3
		C1449.5,598,1437.2,602.2,1424.1,605.4z"/>
	<path class="st1" d="M1225.2,318.7c2.1-2.4,3.9-5.1,6.2-7.3c15.4-14.6,12.8-27.1-7.4-33.6c-3.9-1.2-8.1-1.3-12.2-1.9
		c5.1-2.8,9.9-6.9,15.3-8c12-2.3,24.7-0.3,29.9,11.6c3.2,7.3,2.9,18.5-0.4,25.9C1251.1,318.3,1239.1,322.4,1225.2,318.7z"/>
	<path class="st1" d="M1309.4,284.5c-4.7-11.9-9.5-23.9-14.2-35.8c6.3-10.7,17.1-11,25.1-6.1c6.6,4.1,12,13.5,13.8,21.5
		c2.3,10.1-6.7,15-15.3,18.2C1315.8,283.3,1312.5,283.7,1309.4,284.5z"/>
	<path class="st1" d="M1472.5,494.9c3.5-8.6,11.2-18,2.6-26.3c-5.2-5-14.4-5.9-21.9-8.7c6.1-11.5,14.8-17.6,28.1-12.7
		c9.9,3.7,18.4,21.2,16.4,32.4C1495.7,490.5,1486.8,495.9,1472.5,494.9z"/>
	<path class="st1" d="M1376.9,711.6c1.5-17.2-4.8-31.6-15.4-44.6c6.5-1.5,13.9-5.7,19.3-3.9c11.4,3.7,18,14,16.9,25.9
		c-0.6,6.7-6.1,13.3-10.6,19.1C1385.3,710.5,1380.4,710.6,1376.9,711.6z"/>
	<path class="st1" d="M1497.7,576.4c13.8-17.3,1.7-30.2-7.3-43.7c1.4,0.2,2.8,0.8,4.1,0.5c20.8-4.2,29.6,0.2,32.1,16
		c2.7,17.2-5.9,25.6-27.5,27.1C1498.6,576.3,1498.1,576.4,1497.7,576.4z"/>
	<path class="st1" d="M1708.5,409.3c-4.7-11.1-9.3-22.2-14-33.3c5.5-2,11.1-5.8,16.4-5.5c6.7,0.5,16,2.7,18.9,7.4
		c2.6,4.3-0.1,14.2-3.7,19.3C1722.3,402.7,1714.6,405.4,1708.5,409.3z"/>
	<path class="st1" d="M1259.1,400.6c6.9-18.1,0.6-32.8-11.5-46.2c15.3-8,22.8-5.5,28.7,10.1c2.2,5.9,4.1,12.3,4.6,18.5
		C1282.2,398.9,1275,404.3,1259.1,400.6z"/>
	<path class="st1" d="M1691.7,42.7c0.2,10.7-4.8,16.4-15.8,16.1c-8.8-0.2-17-1.9-18-12.7c-0.8-8.7,9.1-20.9,16.5-21.2
		C1683.5,24.5,1691.5,32.7,1691.7,42.7z"/>
	<path class="st1" d="M1920.1,239.6c-8.1-2.1-17-3.8-16.9-15.7c0.1-9.7,8-17.1,18-16.9c10.1,0.2,16,5.7,15.8,15.4
		C1936.7,232.1,1931.6,238.9,1920.1,239.6z"/>
	<path class="st0" d="M1525.6,161.5c-0.2,1.7-0.1,3.7-0.8,5.2c-9.3,19.9-7.3,25.8,12.1,34.9c-9.5-0.1-20.6,2.7-27.8-1.5
		c-4.5-2.6-6.3-16.9-3.5-23.4C1508.6,170,1518.7,166.4,1525.6,161.5z"/>
	<path class="st1" d="M1523,387.8c9-18-1.8-29.6-13.2-41.1c1.8-0.1,3.7,0.1,5.4-0.3c19.1-4.9,32,5.3,30.6,25.1
		C1544.9,385.5,1533.9,387,1523,387.8z"/>
	<path class="st0" d="M982,666.1c-11.9-2.8-14.8-8.3-14.7-16.4c0.2-9.2,4.5-17,13.7-14.8c6.7,1.6,11.9,9.2,17.8,14.2
		C993.2,654.7,987.6,660.4,982,666.1z"/>
	<path class="st0" d="M925.1,776c-5.2-7.2-11.3-12.7-10.3-14.8c3.4-7.3,9.3-13.3,14.3-19.9c4.7,6.2,11.8,11.9,13,18.6
		C942.7,763.5,933,768.9,925.1,776z"/>
	<path class="st0" d="M1246.5,833.2c-8.1,7.8-12.8,12.3-17.5,16.8c-5.2-5.8-13-10.9-14.9-17.6c-2.5-8.7,5.9-14,13.7-12.7
		C1233.2,820.7,1237.9,826.8,1246.5,833.2z"/>
	<path class="st1" d="M1908.2,482.6c8.9-6.6,15.1-14.2,18.9-13.2c6.6,1.8,15.3,8.2,16.6,14.1c2.3,10.5-9,13.9-16.6,13.7
		C1922,497,1917.1,489.8,1908.2,482.6z"/>
	<path class="st1" d="M1811.2,617.5c-0.6,14.9-7,17.2-16,17.3c-8.9,0.1-12.7-4.2-12.2-12.6c0.5-8.6,2.4-18.5,13.2-16.6
		C1802.5,606.7,1807.7,614.5,1811.2,617.5z"/>
	<path class="st1" d="M1550.3,464.2c1.5-2.2,2.6-5,4.6-6.7c10.3-8.8,6.9-16.4-1.7-23.9c-2-1.7-3.7-3.9-5.5-5.9
		c8.2-3.8,17.6-7.5,23.2,2c3.8,6.4,6.4,16.2,4.2,22.6C1571.6,462.6,1561.6,466.6,1550.3,464.2z"/>
	<path class="st1" d="M1769.6,88.3c5.5-3.3,11.5-9.7,16.3-8.9c5.7,0.9,10.3,8.2,15.4,12.7c-5.7,5.1-10.7,12.4-17.3,14.4
		c-3.4,1-9.6-7.7-14.5-12C1769.4,92.4,1769.5,90.4,1769.6,88.3z"/>
	<path class="st0" d="M977,370.8c3.8,5.3,10.7,10.7,10.6,15.8c-0.1,4.2-8.6,8.2-13.4,12.4c-3.7-4.4-9.7-8.5-10.5-13.3
		c-0.7-4.3,4.5-9.5,7.1-14.3C972.9,371.2,974.9,371,977,370.8z"/>
	<path class="st1" d="M1324.9,545.9c4.1-21.6,3.6-22.5-16.4-30.5c7.5-6.5,16.4-10.5,24.6-3.4c4.9,4.2,9.3,11.9,9.5,18.2
		C1343,540.4,1334.2,544.4,1324.9,545.9z"/>
	<path class="st0" d="M1172.6,482c12,6.1,15.3,14.5,10.9,27.5c-11,4.8-15.5-2.6-17.7-10.8C1164.3,492.6,1160.6,483.6,1172.6,482z"/>
	<path class="st1" d="M1984.9,112.3c-1,11.8-5.3,18-13.3,16.2c-5-1.2-10.2-8.1-11.8-13.6c-0.7-2.3,7.2-9.6,11.9-10.4
		C1975.5,103.8,1980.4,109.4,1984.9,112.3z"/>
	<path class="st1" d="M1758.5,0c3.3,5.3,8.6,10.4,9.1,15.9c0.3,3.5-6.3,10.2-10.5,10.9c-7.3,1.1-14.2-3.4-12.5-12.2
		c1-5.2,5.5-9.7,8.5-14.5C1754.8,0,1756.7,0,1758.5,0z"/>
	<path class="st0" d="M916,681.9c-5.8,4.3-10.3,9.6-12.7,8.8c-4.5-1.5-10.8-6.6-10.7-10.1c0.1-4.3,6-8.4,9.4-12.6
		C905.9,671.9,909.8,675.8,916,681.9z"/>
	<path class="st0" d="M1163.4,858c-7.8,6-12.3,12.1-16.1,11.6c-4.1-0.5-9.5-6.5-10.6-11.1c-0.7-2.6,5.8-9.8,9.3-10
		C1150.5,848.4,1155.1,853.2,1163.4,858z"/>
	<path class="st0" d="M1118,760.5c5,9.7,9.4,15,10,20.8c0.3,2.7-6.9,6.1-10.7,9.2c-3.5-4.7-8.7-9-9.8-14.1
		C1106.9,773,1112.5,768.5,1118,760.5z"/>
	<path class="st1" d="M2015.3,195.7c-7.8,5.1-13.8,10.7-15.3,9.7c-4.6-3.2-8.5-8.5-10.2-13.8c-0.6-1.9,6.9-9.2,9-8.6
		C2003.7,184.6,2007.6,189.4,2015.3,195.7z"/>
	<path class="st1" d="M2006.7,440.9c6.2,7.6,12.7,12.2,12.1,15.7c-0.6,4.2-6.9,8.9-11.6,10.3c-2.2,0.7-9.1-5.7-9.3-9.1
		C1997.7,453.6,2002.2,449.1,2006.7,440.9z"/>
	<path class="st0" d="M1102.1,233.8c7.7,7.4,11.8,11.3,15.9,15.2c-5.2,4.4-10.1,9.4-16,12.7c-0.9,0.5-8.5-6.7-8.8-10.5
		C1093,246.8,1097.6,242.1,1102.1,233.8z"/>
	<path class="st1" d="M2061.9,85.5c-5.1,2.9-9.9,6.8-15.3,8.4c-2.3,0.7-6-3.5-9.1-5.5c3.8-4.4,6.9-10.2,11.7-12.7
		c2.5-1.3,8,3.4,12.1,5.4C2061.5,82.6,2061.7,84,2061.9,85.5z"/>
	<path class="st0" d="M866.4,792.1c-6.3,3.3-11,7.5-13,6.5c-4.2-2.1-6.9-7-10.3-10.7c3.6-2.9,7.8-8.5,10.8-7.9
		C857.9,780.8,860.9,786.4,866.4,792.1z"/>
	<path class="st0" d="M1128.3,515c-8.9,4.5-13.7,8.1-18.9,8.9c-2.1,0.3-7.9-6.7-7.2-8.3c1.8-4.2,6-9.8,9.7-10.1
		C1115.7,505.1,1120.2,510,1128.3,515z"/>
	<path class="st1" d="M1802.9,360.7c-4.7,4.5-8.7,10-10.2,9.4c-4.5-1.9-8.1-6.1-12.1-9.5c3.5-3.5,6.5-8.6,10.7-10
		C1793.4,349.9,1797.7,356,1802.9,360.7z"/>
	<path class="st1" d="M1889.7,594.5c-3.9,2.3-7.7,6.1-11.6,6.3c-3.1,0.1-6.4-4.2-9.7-6.6c3-3.4,5.6-8.8,9.1-9.5
		c3.5-0.7,7.9,3.3,12,5.3C1889.5,591.5,1889.6,593,1889.7,594.5z"/>
	<path class="st0" d="M1051.5,811.2c-5,3.7-9,8.1-10.4,7.4c-4-2-8.6-5.6-9.8-9.6c-0.7-2.2,4.5-6.4,7.1-9.7
		C1042.1,802.7,1045.8,806,1051.5,811.2z"/>
	<path class="st1" d="M1862.1,51.1c4.6,7.3,9.2,11.5,8.8,14.9c-0.5,3.3-6,7.3-9.9,8.1c-2.3,0.4-8.4-5.3-8-7.4
		C1853.7,62.2,1857.6,58.3,1862.1,51.1z"/>
	<path class="st0" d="M907,417.9c-4.5,3.7-7.3,5.9-10,8.2c-2.9-3.7-6.8-7-8.2-11.2c-0.6-1.8,4.2-5.3,6.6-8
		C898.7,410,902,413.1,907,417.9z"/>
	<path class="st0" d="M1024.6,267c3.7,6.1,7.3,9.5,7.4,13.1c0.1,2.3-5,4.7-7.7,7.1c-2.3-3.4-5.5-6.6-6.4-10.4
		C1017.4,274.9,1021,271.9,1024.6,267z"/>
	<path class="st1" d="M1365.7,214.8l-1.2,0.4c0,0-1.2-0.5-1.1-0.5C1364.1,213.9,1364.9,214,1365.7,214.8z"/>
</g>
</svg>
