<?xml version="1.0" encoding="utf-8"?>
<!-- Generator: Adobe Illustrator 26.0.3, SVG Export Plug-In . SVG Version: 6.00 Build 0)  -->
<svg version="1.1" id="Layer_1" xmlns="http://www.w3.org/2000/svg" xmlns:xlink="http://www.w3.org/1999/xlink" x="0px" y="0px"
	 viewBox="0 0 258.198761 130.6273956" style="enable-background:new 0 0 258.198761 130.6273956;" xml:space="preserve">
<style type="text/css">
	.st0{fill:#DE7C1B;}
	.st1{fill:#0067B2;}
	.st2{fill:#00853C;}
</style>
<g>
	<path class="st0" d="M183.6019592,64.4217453c0.0009918-13.6673317-0.0067444-27.3346825,0.0168915-41.001976
		c0.0017548-1.0028648-0.3724518-1.7032604-1.1963806-2.162241c-1.6615448-0.9255619-3.3273621-1.8474102-5.0279694-2.6976318
		c-1.6331329-0.8164825-2.3991241-1.9527683-2.3101196-3.8922377c0.1730957-3.7720137,0.1063538-7.5551219,0.134201-11.3336725
		c0.0117798-1.598336,0.6558838-2.3655019,2.2451172-2.5705624c0.8682709-0.1120343,1.7459564-0.2131864,2.6194458-0.2137641
		c16.1841888-0.0107008,32.3699646-0.1405412,48.5519104,0.0511615c8.5866852,0.1017228,16.1769867,3.1837316,22.1727295,9.487484
		c3.4051819,3.5800962,5.7277374,7.8771067,6.9029694,12.7177248c0.283844,1.1692581,0.4573059,2.3972759,0.4586487,3.5985088
		c0.0272217,25.0444145,0.0475159,50.0889015,0.004364,75.1332703c-0.0096436,5.5912704-1.1139221,10.9944611-3.841217,15.9397812
		c-2.4851837,4.50634-6.1146088,7.8059692-10.8448944,9.9209595c-4.4805603,2.0033569-9.1704865,2.9546051-14.0450897,3.0119324
		c-5.1856079,0.0609894-10.3723297,0.0164185-15.5585022,0.0350494c-6.2544708,0.0225067-12.5089111,0.0921021-18.7633209,0.087204
		c-5.7983093-0.0045319-11.5968933-0.060791-17.3945312-0.147995c-0.7752686-0.0116577-1.6820831-0.1487122-2.2776489-0.5764313
		c-0.5264435-0.378067-0.9796906-1.237915-0.99086-1.893158c-0.0799866-4.6929474-0.0267487-9.3880157-0.0455475-14.0822983
		c-0.0039825-0.9929276,0.3888245-1.6429977,1.2614899-2.1086349c2.117569-1.1298904,4.2085419-2.3096085,6.3132477-3.4637527
		c1.1232147-0.6159515,1.6994476-1.4513931,1.6927795-2.8375473c-0.0604706-12.5597458-0.0608978-25.1197739-0.0785065-37.679718
		C183.5996246,66.6360397,183.6009674,65.5288925,183.6019592,64.4217453z M205.2415466,63.9746971
		c-0.0031281,0-0.0062714,0-0.0093994,0c0,3.6257515-0.0003204,7.2515068,0.0000305,10.8772545
		c0.0010223,10.3810654-0.0000153,20.7621384,0.0050812,31.1432037c0.0013123,2.6960983,0.2193756,2.939621,2.9308167,2.9539871
		c3.852356,0.0203857,7.7062225,0.0437088,11.5572205-0.0384827c3.5492096-0.0757446,7.0900879-0.4390717,10.4858551-1.5086517
		c2.470932-0.7782974,4.834259-1.8988876,5.4407196-4.8211136c0.230545-1.1108093,0.3190002-2.2697144,0.3200378-3.4068375
		c0.0208282-22.7467957,0.0197906-45.4936256,0.0207672-68.240448c0.0000305-0.8774071-0.0476074-1.7552433-0.0319824-2.632143
		c0.0395355-2.220829-1.0723114-4.0292473-2.4481354-5.5144634c-2.6389771-2.8488827-6.0482483-4.3730011-9.9512177-4.4795513
		c-4.8423309-0.1322002-9.6891327-0.1534863-14.5336609-0.1344357c-3.3127441,0.0130215-3.8148499,1.1110458-3.8065338,3.7812195
		C205.2647552,35.9609413,205.2415466,49.9678535,205.2415466,63.9746971z"/>
	<path class="st1" d="M88.1342697,64.7663879c0.0015488-18.8971672,0.0015259-37.7943344,0.0015869-56.6915016
		c0-1.6411071-0.0393829-3.2834325,0.0107269-4.9230156c0.0651474-2.131084,1.1997452-3.1607997,3.3524551-3.1518121
		c1.6411667,0.0068507,3.2824097,0.0038793,4.9236069,0.0037841c20.802002-0.0012051,41.6039963-0.0038042,62.405983-0.0026838
		c2.6276398,0.0001416,3.5177917,0.8824632,3.5232086,3.5001326c0.0074921,3.6266887,0.0025787,7.2534275-0.0081177,10.8801146
		c-0.0051117,1.7340345-0.6882324,2.5801706-2.4294586,2.8915148c-0.8184814,0.1463509-1.6663055,0.176836-2.5009155,0.1774998
		c-15.1530151,0.0120564-30.3060455,0.0113754-45.4590759,0.0148773c-0.3431625,0.0000782-0.6867752,0.0090828-1.0293961,0.0279903
		c-1.0523758,0.0580883-1.5855484,0.6214333-1.6325531,1.6721973c-0.0784531,1.7535019-0.2341919,3.5062504-0.2409439,5.2597656
		c-0.0239716,6.2224503,0.0012589,12.4450912,0.0080109,18.6676598c0.0001221,0.1145172-0.0001526,0.2291145,0.0037613,0.343544
		c0.0687256,2.0097542,0.2436066,2.2072067,2.2753754,2.2108116c10.7253494,0.0190735,21.4507675,0.0174446,32.1760941,0.0429764
		c0.9064331,0.0021553,1.8389893,0.042347,2.7134399,0.2544861c2.008606,0.4872932,2.8876343,1.4934959,2.940155,3.5341072
		c0.0824432,3.2035294,0.0871429,6.4120445,0.0098724,9.6156807c-0.0552826,2.2924614-1.0831909,3.2785721-3.3980255,3.499279
		c-0.9477997,0.0903664-1.9045258,0.1186981-2.8572998,0.1204529c-10.4580078,0.0193138-20.9161758-0.0009613-31.3739014,0.0594521
		c-2.6066208,0.0150566-2.3903427-0.0887146-2.4348221,2.41576c-0.1050262,5.9155121-0.0700836,11.8336563-0.0743866,17.7507477
		c-0.0055389,7.5970078,0.0047073,15.1940231,0.0107346,22.7910385c0.0019455,2.4503708,0.2774887,2.7912369,2.7710419,2.8007202
		c9.2748337,0.0353012,18.5498505,0.0269165,27.8247986,0.0296555c8.4352875,0.0024719,16.8705902-0.0094604,25.3058472,0.0104446
		c0.7119598,0.0016785,1.4443665,0.1232529,2.1304169,0.318634c1.0724487,0.3053894,1.7957916,1.0060806,1.828537,2.1943741
		c0.0440979,1.6019745,0.0524139,3.2051849,0.0569611,4.8079147c0.0115662,4.084816,0.0141144,8.1696701,0.0169067,12.2545013
		c0.0010986,1.610672-0.5064392,2.1999969-2.1060486,2.407486c-0.4898071,0.0635376-0.9894562,0.070694-1.4845734,0.0707397
		c-23.9316406,0.002594-47.8632736,0.0028076-71.794899-0.0038757c-0.8764954-0.0002289-1.7594757-0.017746-2.6280594-0.1220398
		c-1.6854782-0.2023621-2.5105438-1.061676-2.6838989-2.7510147c-0.0894241-0.8714676-0.1480942-1.750473-0.1484451-2.626091
		C88.130867,105.0039368,88.1327209,84.8851547,88.1342697,64.7663879z"/>
	<path class="st2" d="M72.1169434,34.3248596c-2.4047089,0-4.8094025,0.0004616-7.2141037-0.0001564
		c-1.7740479-0.0004539-2.4218674-0.5941048-2.5223274-2.3518295c-0.3758469-6.5770359-3.6759262-10.9305477-9.9537621-12.9223518
		c-7.6560631-2.4290791-14.7947617-1.2506542-21.2671032,3.4727592c-4.4878807,3.2751827-4.9120865,8.0609112-3.0571461,12.9458656
		c1.3144894,3.461689,3.7506866,6.1698036,6.6957512,8.2489395c5.8539848,4.13274,11.8299103,8.098896,17.8459053,11.9941292
		c6.057682,3.9222336,12.0499268,7.9162483,17.3574753,12.8395271c5.004364,4.6420441,9.265419,9.8209915,11.5594406,16.3814621
		c1.802269,5.1541595,2.4822998,10.434166,1.8815689,15.8814774c-1.1136246,10.0980988-6.5121002,17.3832321-14.9062881,22.6475067
		c-9.9246025,6.2240448-20.8808289,7.6648712-32.3151703,6.7394104c-6.4589615-0.5227661-12.6124668-2.1633301-18.3781033-5.1327896
		c-6.4083176-3.3004303-11.8173618-7.6881714-15.0859041-14.3130417c-1.7501589-3.5473404-2.5552611-7.3283081-2.7140179-11.2576599
		c-0.0554504-1.3724365-0.020383-2.7483292-0.0426429-4.1223831c-0.0183576-1.1331482,0.4522824-1.9140091,1.5825529-2.1894608
		c0.5875506-0.1431961,1.1951602-0.2832336,1.7944539-0.2864609c4.6950369-0.0253067,9.3902588-0.0228348,14.0854101-0.0168915
		c2.4346294,0.0030823,3.2729912,0.7734375,3.26647,3.2059021c-0.0109158,4.0734558,1.2354031,7.4769058,4.8101616,9.7749481
		c2.7745075,1.7835693,5.8137512,2.9003677,9.0492535,3.3518066c5.6618843,0.7899475,11.3430595,0.8923645,16.9661102-0.3304443
		c3.4157104-0.7427902,6.6249123-2.0064392,8.5949593-5.1424942c2.2298508-3.5495987,2.1944695-7.2261353,0.1257896-10.8402939
		c-2.1833115-3.8144073-5.4100151-6.6893387-8.8131828-9.3551788c-6.7709465-5.3039398-14.3106995-9.4395828-21.5285149-14.0660706
		c-9.2235641-5.9121323-16.6379566-13.5413551-21.7508583-23.3149414
		c-2.9422164-5.6241989-3.5760579-11.5922241-2.8210235-17.7927532c0.5631714-4.6249027,1.7358508-9.0593472,4.1597724-13.0867014
		c2.8388987-4.716835,6.872488-8.0964088,11.8007145-10.4726763c5.5511894-2.6766462,11.4663219-3.905941,17.5605373-4.2251444
		c3.8009033-0.1990839,7.643013-0.3134724,11.4271431,0.0043958C60.5931854,1.4570335,69.4496307,5.4057379,76.2519913,13.411253
		c3.7782822,4.4465561,5.7667847,9.5462513,5.6319351,15.4249191c-0.0253906,1.1065865,0.0235291,2.215065-0.0095749,3.3212376
		c-0.0453262,1.5136719-0.668396,2.1333351-2.1993866,2.1486702c-2.5191116,0.0252457-5.0386581,0.0068436-7.5580215,0.0068436
		C72.1169434,34.3169022,72.1169434,34.3208809,72.1169434,34.3248596z"/>
</g>
</svg>
