<?xml version="1.0" encoding="utf-8"?>
<!-- Generator: Adobe Illustrator 26.0.1, SVG Export Plug-In . SVG Version: 6.00 Build 0)  -->
<svg version="1.1" id="Layer_1" xmlns="http://www.w3.org/2000/svg" xmlns:xlink="http://www.w3.org/1999/xlink" x="0px" y="0px"
	 viewBox="0 0 195.0513458 125.8309021" style="enable-background:new 0 0 195.0513458 125.8309021;" xml:space="preserve">
<style type="text/css">
	.st0{fill:url(#SVGID_1_);}
</style>
<g>
	<linearGradient id="SVGID_1_" gradientUnits="userSpaceOnUse" x1="0" y1="62.915451" x2="195.0513458" y2="62.915451">
		<stop  offset="0.3" style="stop-color:#00639C"/>
		<stop  offset="0.4103505" style="stop-color:#437391"/>
		<stop  offset="0.6508765" style="stop-color:#8A9E6F"/>
		<stop  offset="0.8194851" style="stop-color:#B6BF45"/>
		<stop  offset="0.9" style="stop-color:#C8CD2D"/>
	</linearGradient>
	<path class="st0" d="M180.5914764,81.9674835c-1.0356293-0.0412521-1.8896942-0.1221924-2.7979584-0.3467407
		c-3.2111206-0.7876511-5.9528656-3.4501877-8.8557587-6.2691269l-0.7433777-0.7197952
		c-3.8124542-3.6789093-8.5103149-7.4741135-14.423645-7.7057037c-4.7139587-0.1814194-9.4903107,1.9414444-14.5944214,6.4843369
		c-0.7469788,0.6634369-1.4902039,1.3550568-2.1877136,2.0067139c-2.452652,2.287468-4.7659912,4.4449844-7.4255219,5.6318512
		c-1.465744,0.6523743-3.0794296,0.9707947-4.66996,0.9309769l-0.1490784-0.0048904
		c-1.1325226-0.0380936-2.0402145-0.1135712-3.0140228-0.3542175c-3.2006226-0.7820435-5.9409332-3.4396896-8.8421097-6.2533188
		l-0.7603378-0.7377625c-3.8117294-3.6767502-8.5108871-7.4720993-14.4230652-7.7036896
		c-4.7070618-0.1845856-9.4812546,1.9362717-14.5919876,6.4844818c-0.7482529,0.6641541-1.4883194,1.3533325-2.1823807,2.0023956
		c-2.4543762,2.2886276-4.7685928,4.4465714-7.4296875,5.6354523c-1.4947968,0.6660233-3.110199,0.9889069-4.6807556,0.9315491
		l-0.1568375-0.0054626c-1.1241837-0.0383835-2.0275574-0.1142883-2.9966278-0.3536453
		c-3.20364-0.7833405-5.947403-3.4452972-8.852314-6.2636719l-0.7495537-0.7268372
		c-3.8115921-3.6774673-8.5103111-7.4726715-14.4240761-7.7042618c-4.7100754-0.1809921-9.4844131,1.9400101-14.5922699,6.4846191
		c-0.7133255,0.63311-1.4279461,1.2992859-2.1843987,2.0044174c-2.452076,2.2864685-4.7662868,4.4444122-7.4273872,5.6332932
		c-1.4124184,0.6287918-2.9328003,0.9414673-4.4373684,0.9367218l-0.8501835-0.0287476
		c-0.9246502-0.044426-1.7128735-0.1295319-2.5466681-0.3355331c-3.1984658-0.7817535-5.9371939-3.4372482-8.8366432-6.2485733
		L0,74.6296616l3.6063063-3.7158508l0.749409,0.727272c2.289773,2.220192,4.6429429,4.50177,6.4818921,4.9513016
		c0.5143652,0.1270828,1.0439682,0.1735153,1.7955341,0.2022705l0.632102,0.0074768h0.0610971
		c0.6710615-0.0309143,1.3550606-0.1952286,2.0008202-0.4827423c1.8699999-0.8353729,3.8777208-2.7075348,6.0031786-4.6895218
		c0.7827606-0.7297134,1.5198078-1.4167328,2.2781296-2.0898056c6.1536922-5.4751587,12.1189213-8.0271416,18.2326488-7.7880745
		c7.6533737,0.299736,13.3044891,4.7969093,17.8233681,9.1565056l0.7545853,0.7318726
		c2.281292,2.213295,4.639782,4.5013428,6.4828987,4.9521637c0.5642471,0.1392975,1.1434479,0.1815643,2.0100174,0.2093124
		l0.1611557,0.0053177c0.7639313,0.0163879,1.5645142-0.152092,2.3179474-0.4876251
		c1.8702927-0.8355179,3.8780136-2.7076797,6.0034714-4.6896667c0.7174911-0.6710587,1.485733-1.3862534,2.2779846-2.0896606
		c6.1577148-5.4796143,12.1213608-8.0281487,18.2348022-7.7882195c7.6497803,0.2995911,13.3011856,4.7967644,17.8206406,9.1563606
		l0.7548676,0.7325897c2.2870407,2.2178955,4.6417923,4.5016327,6.4829025,4.9514465
		c0.5643921,0.1394424,1.143013,0.1817093,2.0090103,0.2094574l0.1318283,0.0033035
		c0.7923889,0.0136566,1.6200027-0.161438,2.3484268-0.4857559c1.8681259-0.8335037,3.8742752-2.7046585,5.9982834-4.6856384
		c0.721817-0.6743698,1.492218-1.3911438,2.2821655-2.0928268c6.1498108-5.4735718,12.1197815-8.0203857,18.2350922-7.7890816
		c7.6543732,0.299881,13.3044891,4.7970543,17.8225098,9.1567955l0.7492523,0.7255402
		c2.2821655,2.2160263,4.6390686,4.5047989,6.4893799,4.958786c0.5153656,0.1273651,1.0475616,0.1735153,1.806015,0.2022629
		l0.541687,0.0114975c0.7149048-0.0133667,1.4486389-0.1799774,2.1385345-0.4871902
		c1.8712921-0.8358078,3.8790131-2.7083969,6.0047607-4.6908188c0.7317352-0.6827011,1.3930206-1.297554,2.0715485-1.9060822
		l3.4570923,3.855011c-0.6434631,0.5770416-1.2850494,1.1736374-1.9967957,1.8376541
		c-2.4506378,2.2856064-4.7649994,4.4441223-7.4273834,5.6332855c-1.4163055,0.6308136-2.9466095,0.9476547-4.450882,0.9364395
		L180.5914764,81.9674835z M193.3227997,45.1896133H1.8031532v5.178154h191.5196533V45.1896133z M26.9161415,32.2442322
		c7.7481232,0,10.1237907-3.1605167,10.1237907-9.2058468V9.526969C37.0399323,3.1605158,34.6642647,0,26.9161415,0H1.8031396
		v32.2442322H26.9161415z M31.8618412,22.9919071c0,3.4351597-1.0911808,4.4893684-4.9456997,4.4893684H6.9812307V4.7629561
		h19.9349098c3.8545189,0,4.9456997,1.0542097,4.9456997,4.7640128V22.9919071z M50.4400482,32.2442322V0H45.686985v32.2442322
		H50.4400482z M62.7085571,32.2442322c6.0738525,0,8.5657196-2.8858719,8.5657196-6.8703194V0h-5.178093v25.3739128
		c0,1.4196968-1.0130157,2.1073627-3.3876266,2.1073627h-6.593689v4.7629566H62.7085571z M104.80616,32.2442322
		L92.6584549,15.0230131L104.8452454,0H98.693222L88.3761215,13.0994501h-3.3918457V0h-5.178093v32.2442322h5.178093V17.8624058
		h3.5080414L98.849556,32.2442322H104.80616z M152.0005341,32.2442322v-4.7629566h-22.5133972v-9.8935127h21.3450928v-4.7629566
		h-21.3450928V4.7629561h22.5133972V0h-27.6914902v32.2442322H152.0005341z M193.3227844,32.2442322V0h-4.5168304v23.954216
		L162.5637512,0h-4.4777527v32.2442322h4.5168304V7.1449628l28.1890106,25.0992699H193.3227844z M43.4475822,125.8309021
		l14.8170319-32.2442322h-5.0228119L41.4616966,118.319397l-9.5005589-24.7327271H28.106617l-9.6167564,24.7327271
		L6.7868671,93.5866699H1.8031396l14.7790041,32.2442322h3.7763519l9.6949234-24.7327271l9.5005627,24.7327271H43.4475822z
		 M151.1047668,125.8309021l-6.4636383-12.310379c4.8675385-0.5492859,6.7752533-3.526001,6.7752533-7.694252v-4.4534531
		c0-4.6256332-2.3746185-7.7861481-8.6047974-7.7861481h-23.2834549v32.2442322h5.178093v-12.2184753h14.4452057
		l6.4245453,12.2184753H151.1047668z M146.2382965,105.8716965c0,1.9246216-1.0901337,2.9777679-3.426712,2.9777679h-18.1053619
		V98.3496246h18.1053619c2.3365784,0,3.426712,1.0542068,3.426712,2.9777756V105.8716965z M183.1990051,125.8309021
		c7.7481232,0,10.1237793-3.1605148,10.1237793-9.2058487v-13.5114136c0-6.3664551-2.3756561-9.5269699-10.1237793-9.5269699
		h-25.1130066v32.2442322H183.1990051z M188.1446991,116.5785751c0,3.4351578-1.0911865,4.4893723-4.945694,4.4893723h-19.9349213
		V98.3496246h19.9349213c3.8545074,0,4.945694,1.0542068,4.945694,4.7640152V116.5785751z M82.5178909,117.1570892
		L71.9577026,93.5866547h-3.8545151l-14.7694969,32.2442245h4.8580246l11.8582726-24.7327194l10.0563202,21.3238373
		L82.5178909,117.1570892z M82.1138916,125.8309021h4.8580246l11.8582764-24.7327271l11.6639099,24.7327271h4.6900024
		l-14.4461975-32.2442322h-3.8545227L82.1138916,125.8309021z"/>
</g>
</svg>
